"","NAME1","End2015","End_DayaneLucia","EndFlora","EndFlora_official","EndHERE"
"1","Adenocalymma ackermannii",NA,NA,NA,NA,"Yes"
"2","Adenocalymma apetiolatum",NA,NA,NA,NA,"Yes"
"3","Adenocalymma aurantiacum",NA,NA,NA,NA,"Yes"
"4","Adenocalymma bullatum","Yes","Yes","Yes","Yes","Yes"
"5","Adenocalymma cinereum",NA,NA,NA,NA,"Yes"
"6","Adenocalymma comosum","Yes",NA,"Yes","Yes",NA
"7","Adenocalymma coriaceum","Yes",NA,"Yes","Yes","Yes"
"8","Adenocalymma cymbalum",NA,NA,NA,NA,"Yes"
"9","Adenocalymma dusenii","Yes","Yes","Yes","Yes","Yes"
"10","Adenocalymma flavum","Yes",NA,"Yes","Yes",NA
"11","Adenocalymma grandifolium",NA,NA,NA,NA,"Yes"
"12","Adenocalymma hatschbachii","Yes",NA,"Yes","Yes","Yes"
"13","Adenocalymma hirtum","Yes",NA,"Yes","Yes","Yes"
"14","Adenocalymma hypostictum","Yes",NA,"Yes","Yes",NA
"15","Adenocalymma lineare",NA,NA,NA,NA,"Yes"
"16","Adenocalymma macrophyllum",NA,NA,NA,NA,"Yes"
"17","Adenocalymma magnoalatum","Yes",NA,"Yes","Yes",NA
"18","Adenocalymma nervosum","Yes",NA,"Yes","Yes","Yes"
"19","Adenocalymma paulistarum","Yes","Yes","Yes",NA,NA
"20","Adenocalymma reticulatum","Yes",NA,"Yes","Yes",NA
"21","Adenocalymma salmoneum","Yes","Yes","Yes","Yes","Yes"
"22","Adenocalymma salzmanii","Yes",NA,"Yes","Yes",NA
"23","Adenocalymma scansile",NA,NA,"Yes",NA,NA
"24","Adenocalymma sessile",NA,NA,NA,NA,"Yes"
"25","Adenocalymma subsessilifolium","Yes","Yes","Yes","Yes","Yes"
"26","Adenocalymma ternatum","Yes","Yes","Yes","Yes",NA
"27","Adenocalymma ubatubense","Yes","Yes","Yes","Yes",NA
"28","Amphilophium bauhinioides","Yes",NA,"Yes","Yes","Yes"
"29","Amphilophium blanchetii","Yes",NA,"Yes","Yes",NA
"30","Amphilophium bracteatum",NA,NA,NA,NA,"Yes"
"31","Amphilophium dolichoides","Yes","Yes","Yes","Yes","Yes"
"32","Amphilophium frutescens","Yes","Yes","Yes","Yes",NA
"33","Amphilophium glaziovii","Yes",NA,"Yes","Yes",NA
"34","Amphilophium perbracteatum","Yes",NA,"Yes","Yes",NA
"35","Amphilophium scabriusculum","Yes",NA,"Yes","Yes","Yes"
"36","Anemopaegma heringeri",NA,NA,NA,NA,"Yes"
"37","Anemopaegma hilarianum",NA,NA,NA,NA,"Yes"
"38","Anemopaegma nebulosum",NA,NA,NA,NA,"Yes"
"39","Anemopaegma pachyphyllum",NA,NA,NA,NA,"Yes"
"40","Anemopaegma prostratum","Yes",NA,"Yes",NA,"Yes"
"41","Anemopaegma setilobum",NA,NA,NA,NA,"Yes"
"42","Bignonia campanulata",NA,NA,"Yes",NA,NA
"43","Bignonia costata","Yes","Yes","Yes","Yes","Yes"
"44","Cuspidaria bracteata","Yes",NA,"Yes","Yes",NA
"45","Cuspidaria lasiantha","Yes",NA,"Yes","Yes",NA
"46","Dolichandra chodatii",NA,NA,"Yes",NA,NA
"47","Dolichandra cynanchoides",NA,NA,"Yes",NA,NA
"48","Dolichandra dentata",NA,NA,"Yes",NA,NA
"49","Dolichandra unguiculata","Yes","Yes","Yes","Yes","Yes"
"50","Fridericia elegans","Yes","Yes","Yes","Yes",NA
"51","Fridericia rego",NA,"Yes",NA,NA,"Yes"
"52","Fridericia subincana","Yes","Yes","Yes","Yes",NA
"53","Fridericia subverticillata",NA,NA,NA,NA,"Yes"
"54","Fridericia trachyphylla",NA,"Yes",NA,NA,NA
"55","Fridericia tynanthoides","Yes","Yes","Yes","Yes","Yes"
"56","Lundia corymbifera",NA,NA,"Yes",NA,NA
"57","Lundia damazioi",NA,NA,NA,NA,"Yes"
"58","Lundia obliqua","Yes",NA,"Yes","Yes",NA
"59","Lundia virginalis","Yes",NA,NA,NA,NA
"60","Mansoa glaziovii","Yes","Yes","Yes","Yes","Yes"
"61","Mansoa hymenaea",NA,NA,"Yes",NA,"Yes"
"62","Mansoa lanceolata","Yes","Yes","Yes","Yes","Yes"
"63","Mansoa minensis",NA,NA,NA,NA,"Yes"
"64","Mansoa onohualcoides","Yes","Yes","Yes","Yes",NA
"65","Martinella insignis","Yes",NA,"Yes","Yes","Yes"
"66","Pleonotoma fluminensis","Yes",NA,"Yes","Yes",NA
"67","Pleonotoma stichadenia",NA,NA,"Yes","Yes",NA
"68","Pleonotoma tetraquetra","Yes",NA,"Yes","Yes","Yes"
"69","Tanaecium mutabile",NA,NA,"Yes",NA,NA
"70","Tynanthus cognatus","Yes",NA,"Yes","Yes",NA
"71","Tynanthus elegans","Yes","Yes","Yes","Yes",NA
"72","Tynanthus espiritosantensis",NA,NA,NA,NA,"Yes"
"73","Tynanthus fasciculatus","Yes",NA,"Yes","Yes","Yes"
"74","Tynanthus labiatus","Yes","Yes","Yes","Yes",NA
"75","Tynanthus micranthus",NA,NA,NA,NA,"Yes"
"76","Xylophragma corchoroides",NA,NA,NA,NA,"Yes"
"77","Xylophragma myrianthum",NA,NA,NA,NA,"Yes"
