"","NAME1","dry_biomes","humid_biomes","non_BAF_humid_biomes","amazon","endemismo.mod"
"1","Adenocalymma ackermannii",0,1,0,0,"endemic"
"2","Adenocalymma albiflorum",0,1,0,0,"present"
"3","Adenocalymma alboaurantiacum",1,1,0,0,"present"
"4","Adenocalymma apetiolatum",0,1,0,0,"endemic"
"5","Adenocalymma aurantiacum",0,1,0,0,"endemic"
"6","Adenocalymma bracteatum",1,1,0,0,"present"
"7","Adenocalymma bullatum",0,1,0,0,"endemic"
"8","Adenocalymma cinereum",0,1,0,0,"endemic"
"9","Adenocalymma coriaceum",1,1,0,0,"endemic"
"10","Adenocalymma cristicalyx",1,1,0,0,"marginally present"
"11","Adenocalymma cymbalum",1,1,0,0,"endemic"
"12","Adenocalymma divaricatum",1,1,0,0,"present"
"13","Adenocalymma dusenii",0,1,0,0,"endemic"
"14","Adenocalymma flaviflorum",0,1,1,1,"marginally present"
"15","Adenocalymma grandifolium",0,1,0,0,"endemic"
"16","Adenocalymma hatschbachii",0,1,0,0,"endemic"
"17","Adenocalymma hirtum",0,1,0,0,"endemic"
"18","Adenocalymma hypostictum",1,1,0,0,"marginally present"
"19","Adenocalymma lineare",0,1,0,0,"endemic"
"20","Adenocalymma macrophyllum",0,1,0,0,"endemic"
"21","Adenocalymma marginatum",1,1,0,0,"present"
"22","Adenocalymma nervosum",0,1,0,0,"endemic"
"23","Adenocalymma nodosum",1,1,1,1,"marginally present"
"24","Adenocalymma paulistarum",1,1,0,0,"present"
"25","Adenocalymma pedunculatum",1,1,0,0,"present"
"26","Adenocalymma peregrinum",1,1,1,1,"marginally present"
"27","Adenocalymma pubescens",1,1,0,0,"marginally present"
"28","Adenocalymma salmoneum",0,1,0,0,"endemic"
"29","Adenocalymma scabriusculum",1,1,1,1,"marginally present"
"30","Adenocalymma sessile",0,1,0,0,"endemic"
"31","Adenocalymma subsessilifolium",0,1,0,0,"endemic"
"32","Adenocalymma trifoliatum",0,1,0,0,"endemic"
"33","Adenocalymma validum",1,1,1,1,"present"
"34","Amphilophium bauhinioides",1,1,0,0,"endemic"
"35","Amphilophium bracteatum",0,1,0,0,"endemic"
"36","Amphilophium crucigerum",1,1,1,1,"marginally present"
"37","Amphilophium dolichoides",1,1,0,0,"endemic"
"38","Amphilophium dusenianum",1,1,0,0,"present"
"39","Amphilophium falcatum",0,1,0,0,"present"
"40","Amphilophium frutescens",0,1,0,0,"endemic"
"41","Amphilophium mansoanum",1,1,1,1,"marginally present"
"42","Amphilophium paniculatum",1,1,1,1,"marginally present"
"43","Amphilophium scabriusculum",1,1,0,0,"endemic"
"44","Anemopaegma acutifolium",1,1,0,0,"marginally present"
"45","Anemopaegma album",1,1,0,0,"marginally present"
"46","Anemopaegma arvense",1,1,1,1,"marginally present"
"47","Anemopaegma chamberlaynii",1,1,1,0,"present"
"48","Anemopaegma citrinum",1,1,0,0,"present"
"49","Anemopaegma floridum",0,1,1,1,"marginally present"
"50","Anemopaegma glaucum",1,1,1,1,"marginally present"
"51","Anemopaegma goyazense",1,1,0,0,"present"
"52","Anemopaegma gracile",1,1,0,0,"present"
"53","Anemopaegma heringeri",0,1,0,0,"endemic"
"54","Anemopaegma hilarianum",0,1,0,0,"endemic"
"55","Anemopaegma laeve",1,1,0,0,"marginally present"
"56","Anemopaegma nebulosum",0,1,0,0,"endemic"
"57","Anemopaegma pabstii",1,1,1,1,"marginally present"
"58","Anemopaegma pachyphyllum",0,1,0,0,"endemic"
"59","Anemopaegma prostratum",1,1,0,0,"endemic"
"60","Anemopaegma setilobum",0,1,0,0,"endemic"
"61","Anemopaegma velutinum",1,1,0,0,"present"
"62","Bignonia binata",1,1,0,0,"present"
"63","Bignonia callistegioides",1,1,0,0,"marginally present"
"64","Bignonia campanulata",1,1,0,0,"present"
"65","Bignonia corymbosa",1,1,1,1,"marginally present"
"66","Bignonia costata",0,1,0,0,"endemic"
"67","Bignonia decora",1,1,1,0,"marginally present"
"68","Bignonia prieurii",0,1,1,1,"marginally present"
"69","Bignonia ramentacea",1,1,1,0,"marginally present"
"70","Bignonia sciuripabulum",1,1,1,1,"present"
"71","Callichlamys latifolia",1,1,1,1,"marginally present"
"72","Cuspidaria convoluta",1,1,1,0,"present"
"73","Cuspidaria floribunda",1,1,1,1,"marginally present"
"74","Cuspidaria lasiantha",1,1,0,0,"present"
"75","Cuspidaria lateriflora",1,1,1,1,"marginally present"
"76","Cuspidaria multiflora",1,1,0,0,"marginally present"
"77","Cuspidaria octoptera",1,1,0,0,"present"
"78","Cuspidaria pulchella",1,1,0,0,"present"
"79","Cuspidaria pulchra",1,1,1,1,"present"
"80","Cuspidaria sceptrum",1,1,1,1,"marginally present"
"81","Dolichandra chodatii",1,1,0,0,"marginally present"
"82","Dolichandra cynanchoides",1,1,0,0,"marginally present"
"83","Dolichandra dentata",0,1,0,0,"marginally present"
"84","Dolichandra hispida",1,1,1,1,"present"
"85","Dolichandra quadrivalvis",1,1,1,1,"marginally present"
"86","Dolichandra unguiculata",0,1,0,0,"endemic"
"87","Dolichandra unguis-cati",1,1,1,1,"marginally present"
"88","Fridericia bahiensis",1,1,0,0,"present"
"89","Fridericia caudigera",1,1,1,0,"marginally present"
"90","Fridericia chica",1,1,1,1,"marginally present"
"91","Fridericia cinerea",1,1,0,0,"marginally present"
"92","Fridericia conjugata",1,1,1,1,"present"
"93","Fridericia craterophora",1,1,1,1,"marginally present"
"94","Fridericia cuneifolia",1,1,0,0,"present"
"95","Fridericia dispar",1,1,1,1,"marginally present"
"96","Fridericia elegans",0,1,0,0,"endemic"
"97","Fridericia erubescens",1,1,0,0,"present"
"98","Fridericia fagoides",0,1,1,0,"marginally present"
"99","Fridericia florida",1,1,1,1,"marginally present"
"100","Fridericia formosa",1,1,0,0,"present"
"101","Fridericia leucopogon",0,1,0,0,"endemic"
"102","Fridericia limae",1,1,0,0,"marginally present"
"103","Fridericia mutabilis",1,1,0,0,"marginally present"
"104","Fridericia platyphylla",1,1,1,1,"marginally present"
"105","Fridericia pubescens",1,1,1,1,"marginally present"
"106","Fridericia rego",0,1,0,0,"endemic"
"107","Fridericia samydoides",1,1,0,0,"present"
"108","Fridericia speciosa",1,1,0,0,"present"
"109","Fridericia subexserta",0,1,0,0,"endemic"
"110","Fridericia subincana",0,1,0,0,"endemic"
"111","Fridericia subverticillata",0,1,0,0,"endemic"
"112","Fridericia trachyphylla",1,1,0,0,"present"
"113","Fridericia triplinervia",1,1,1,1,"present"
"114","Fridericia tynanthoides",1,1,0,0,"endemic"
"115","Lundia corymbifera",0,1,1,1,"marginally present"
"116","Lundia damazioi",0,1,0,0,"endemic"
"117","Lundia longa",1,1,0,0,"present"
"118","Lundia nitidula",1,1,1,1,"present"
"119","Lundia obliqua",1,1,0,0,"present"
"120","Lundia virginalis",1,1,0,0,"present"
"121","Manaosella cordifolia",0,1,1,1,"present"
"122","Mansoa difficilis",1,1,1,0,"present"
"123","Mansoa glaziovii",0,1,0,0,"endemic"
"124","Mansoa hymenaea",0,1,0,0,"endemic"
"125","Mansoa lanceolata",0,1,0,0,"endemic"
"126","Mansoa minensis",0,1,0,0,"endemic"
"127","Mansoa onohualcoides",1,1,1,1,"present"
"128","Martinella insignis",0,1,0,0,"endemic"
"129","Perianthomega vellozoi",1,1,1,0,"present"
"130","Pleonotoma fluminensis",1,1,0,0,"present"
"131","Pleonotoma melioides",1,1,1,1,"marginally present"
"132","Pleonotoma stichadenia",1,1,0,0,"present"
"133","Pleonotoma tetraquetra",1,1,0,0,"present"
"134","Pyrostegia venusta",1,1,1,1,"marginally present"
"135","Stizophyllum perforatum",1,1,1,0,"present"
"136","Tanaecium dichotomum",1,1,1,1,"marginally present"
"137","Tanaecium neobrasiliense",1,1,0,0,"present"
"138","Tanaecium parviflorum",1,1,0,0,"present"
"139","Tanaecium pyramidatum",1,1,1,1,"marginally present"
"140","Tanaecium selloi",1,1,1,0,"present"
"141","Tynanthus cognatus",1,1,0,0,"endemic"
"142","Tynanthus espiritosantensis",0,1,0,0,"endemic"
"143","Tynanthus fasciculatus",1,1,0,0,"endemic"
"144","Tynanthus labiatus",1,1,0,0,"present"
"145","Tynanthus micranthus",0,1,0,0,"endemic"
"146","Xylophragma corchoroides",1,1,0,0,"endemic"
"147","Xylophragma harleyi",1,1,0,0,"present"
"148","Xylophragma heterocalyx",1,1,0,0,"present"
"149","Xylophragma myrianthum",1,1,0,0,"endemic"
