"","GENUS","SPECIES","NAME1","endemismo","Node","Node_nb"
"1","Adenocalymma","ackermannii","Adenocalymma ackermannii","endemic","C",2
"2","Adenocalymma","adenophorum","Adenocalymma adenophorum","absent","C",2
"3","Adenocalymma","albiflorum","Adenocalymma albiflorum","present","C",2
"4","Adenocalymma","alboaurantiacum","Adenocalymma alboaurantiacum","present","C",2
"5","Adenocalymma","album","Adenocalymma album","absent","C",2
"6","Adenocalymma","allamandiflorum","Adenocalymma allamandiflorum","absent","C",2
"7","Adenocalymma","apetiolatum","Adenocalymma apetiolatum","endemic","C",2
"8","Adenocalymma","apparicianum","Adenocalymma apparicianum","absent","C",2
"9","Adenocalymma","apurense","Adenocalymma apurense","absent","C",2
"10","Adenocalymma","arthropetiolatum","Adenocalymma arthropetiolatum","absent","C",2
"11","Adenocalymma","aspericarpum","Adenocalymma aspericarpum","absent","C",2
"12","Adenocalymma","aurantiacum","Adenocalymma aurantiacum","endemic","C",2
"13","Adenocalymma","biternatum","Adenocalymma biternatum","absent","C",2
"14","Adenocalymma","bracteatum","Adenocalymma bracteatum","present","C",2
"15","Adenocalymma","bracteolatum","Adenocalymma bracteolatum","absent","C",2
"16","Adenocalymma","bracteosum","Adenocalymma bracteosum","absent","C",2
"17","Adenocalymma","bullatum","Adenocalymma bullatum","endemic","C",2
"18","Adenocalymma","calcareum","Adenocalymma calcareum","absent","C",2
"19","Adenocalymma","candolleanum","Adenocalymma candolleanum","absent","C",2
"20","Adenocalymma","chocoense","Adenocalymma chocoense","absent","C",2
"21","Adenocalymma","cidii","Adenocalymma cidii","absent","C",2
"22","Adenocalymma","cinereum","Adenocalymma cinereum","endemic","C",2
"23","Adenocalymma","cladotrichum","Adenocalymma cladotrichum","absent","C",2
"24","Adenocalymma","contractum","Adenocalymma contractum","absent","C",2
"25","Adenocalymma","coriaceum","Adenocalymma coriaceum","endemic","C",2
"26","Adenocalymma","cristicalyx","Adenocalymma cristicalyx","present","C",2
"27","Adenocalymma","cymbalum","Adenocalymma cymbalum","endemic","C",2
"28","Adenocalymma","dichilum","Adenocalymma dichilum","absent","C",2
"29","Adenocalymma","divaricatum","Adenocalymma divaricatum","present","C",2
"30","Adenocalymma","dugandii","Adenocalymma dugandii","absent","C",2
"31","Adenocalymma","dusenii","Adenocalymma dusenii","endemic","C",2
"32","Adenocalymma","flaviflorum","Adenocalymma flaviflorum","marginally present","C",2
"33","Adenocalymma","flavum","Adenocalymma flavum","absent","C",2
"34","Adenocalymma","gibbosum","Adenocalymma gibbosum","absent","C",2
"35","Adenocalymma","gracielzae","Adenocalymma gracielzae","absent","C",2
"36","Adenocalymma","grandifolium","Adenocalymma grandifolium","endemic","C",2
"37","Adenocalymma","hatschbachii","Adenocalymma hatschbachii","endemic","C",2
"38","Adenocalymma","hirtum","Adenocalymma hirtum","endemic","C",2
"39","Adenocalymma","hypostictum","Adenocalymma hypostictum","marginally present","C",2
"40","Adenocalymma","impressum","Adenocalymma impressum","absent","C",2
"41","Adenocalymma","juliae","Adenocalymma juliae","absent","C",2
"42","Adenocalymma","lineare","Adenocalymma lineare","endemic","C",2
"43","Adenocalymma","longilineum","Adenocalymma longilineum","absent","C",2
"44","Adenocalymma","macrophyllum","Adenocalymma macrophyllum","endemic","C",2
"45","Adenocalymma","magdalenense","Adenocalymma magdalenense","absent","C",2
"46","Adenocalymma","magnificum","Adenocalymma magnificum","absent","C",2
"47","Adenocalymma","marginatum","Adenocalymma marginatum","present","C",2
"48","Adenocalymma","mirabile","Adenocalymma mirabile","absent","C",2
"49","Adenocalymma","molle","Adenocalymma molle","absent","C",2
"50","Adenocalymma","moringifolium","Adenocalymma moringifolium","absent","C",2
"51","Adenocalymma","nervosum","Adenocalymma nervosum","endemic","C",2
"52","Adenocalymma","nodosum","Adenocalymma nodosum","marginally present","C",2
"53","Adenocalymma","patulum","Adenocalymma patulum","absent","C",2
"54","Adenocalymma","paulistarum","Adenocalymma paulistarum","present","C",2
"55","Adenocalymma","pedunculatum","Adenocalymma pedunculatum","present","C",2
"56","Adenocalymma","peregrinum","Adenocalymma peregrinum","marginally present","C",2
"57","Adenocalymma","pubescens","Adenocalymma pubescens","marginally present","C",2
"58","Adenocalymma","salmoneum","Adenocalymma salmoneum","endemic","C",2
"59","Adenocalymma","sastrei","Adenocalymma sastrei","absent","C",2
"60","Adenocalymma","saulense","Adenocalymma saulense","absent","C",2
"61","Adenocalymma","scabriusculum","Adenocalymma scabriusculum","marginally present","C",2
"62","Adenocalymma","schomburgkii","Adenocalymma schomburgkii","absent","C",2
"63","Adenocalymma","sessile","Adenocalymma sessile","endemic","C",2
"64","Adenocalymma","subincanum","Adenocalymma subincanum","absent","C",2
"65","Adenocalymma","subsessilifolium","Adenocalymma subsessilifolium","endemic","C",2
"66","Adenocalymma","subspicatum","Adenocalymma subspicatum","absent","C",2
"67","Adenocalymma","tanaeciicarpum","Adenocalymma tanaeciicarpum","absent","C",2
"68","Adenocalymma","trifoliatum","Adenocalymma trifoliatum","present","C",2
"69","Adenocalymma","ubatubense","Adenocalymma ubatubense","absent","C",2
"70","Adenocalymma","uleanum","Adenocalymma uleanum","absent","C",2
"71","Adenocalymma","validum","Adenocalymma validum","present","C",2
"72","Adenocalymma","velutinum","Adenocalymma velutinum","absent","C",2
"73","Amphilophium","arenarium","Amphilophium arenarium","absent","I",7
"74","Amphilophium","aschersonii","Amphilophium aschersonii","absent","I",7
"75","Amphilophium","bauhinioides","Amphilophium bauhinioides","endemic","I",7
"76","Amphilophium","blanchetii","Amphilophium blanchetii","absent","I",7
"77","Amphilophium","bracteatum","Amphilophium bracteatum","endemic","I",7
"78","Amphilophium","buccinatorium","Amphilophium buccinatorium","absent","I",7
"79","Amphilophium","campinae","Amphilophium campinae","absent","I",7
"80","Amphilophium","carolinae","Amphilophium carolinae","absent","I",7
"81","Amphilophium","chocoense","Amphilophium chocoense","absent","I",7
"82","Amphilophium","cremersii","Amphilophium cremersii","absent","I",7
"83","Amphilophium","crucigerum","Amphilophium crucigerum","marginally present","I",7
"84","Amphilophium","cuneifolium","Amphilophium cuneifolium","absent","I",7
"85","Amphilophium","dasytrichum","Amphilophium dasytrichum","absent","I",7
"86","Amphilophium","dolichoides","Amphilophium dolichoides","endemic","I",7
"87","Amphilophium","dusenianum","Amphilophium dusenianum","present","I",7
"88","Amphilophium","ecuadorense","Amphilophium ecuadorense","absent","I",7
"89","Amphilophium","elongatum","Amphilophium elongatum","absent","I",7
"90","Amphilophium","falcatum","Amphilophium falcatum","present","I",7
"91","Amphilophium","frutescens","Amphilophium frutescens","present","I",7
"92","Amphilophium","gnaphalanthum","Amphilophium gnaphalanthum","absent","I",7
"93","Amphilophium","granulosum","Amphilophium granulosum","absent","I",7
"94","Amphilophium","lactiflorum","Amphilophium lactiflorum","absent","I",7
"95","Amphilophium","laeve","Amphilophium laeve","absent","I",7
"96","Amphilophium","laxiflorum","Amphilophium laxiflorum","absent","I",7
"97","Amphilophium","lohmanniae","Amphilophium lohmanniae","absent","I",7
"98","Amphilophium","magnoliifolium","Amphilophium magnoliifolium","absent","I",7
"99","Amphilophium","mansoanum","Amphilophium mansoanum","marginally present","I",7
"100","Amphilophium","monophyllum","Amphilophium monophyllum","absent","I",7
"101","Amphilophium","nunezii","Amphilophium nunezii","absent","I",7
"102","Amphilophium","obovatum","Amphilophium obovatum","absent","I",7
"103","Amphilophium","occidentale","Amphilophium occidentale","absent","I",7
"104","Amphilophium","paniculatum","Amphilophium paniculatum","marginally present","I",7
"105","Amphilophium","pannosum","Amphilophium pannosum","absent","I",7
"106","Amphilophium","parkeri","Amphilophium parkeri","absent","I",7
"107","Amphilophium","pauciflorum","Amphilophium pauciflorum","absent","I",7
"108","Amphilophium","perbracteatum","Amphilophium perbracteatum","absent","I",7
"109","Amphilophium","pilosum","Amphilophium pilosum","absent","I",7
"110","Amphilophium","porphyrotrichum","Amphilophium porphyrotrichum","absent","I",7
"111","Amphilophium","pulverulentum","Amphilophium pulverulentum","absent","I",7
"112","Amphilophium","racemosum","Amphilophium racemosum","absent","I",7
"113","Amphilophium","reticulatum","Amphilophium reticulatum","absent","I",7
"114","Amphilophium","rodriguesii","Amphilophium rodriguesii","absent","I",7
"115","Amphilophium","sandwithii","Amphilophium sandwithii","absent","I",7
"116","Amphilophium","scabriusculum","Amphilophium scabriusculum","endemic","I",7
"117","Amphilophium","stamineum","Amphilophium stamineum","absent","I",7
"118","Amphilophium","steyermarkii","Amphilophium steyermarkii","absent","I",7
"119","Anemopaegma","acutifolium","Anemopaegma acutifolium","marginally present","L",10
"120","Anemopaegma","alatum","Anemopaegma alatum","absent","L",10
"121","Anemopaegma","album","Anemopaegma album","marginally present","L",10
"122","Anemopaegma","arvense","Anemopaegma arvense","marginally present","L",10
"123","Anemopaegma","brevipes","Anemopaegma brevipes","absent","L",10
"124","Anemopaegma","chamberlaynii","Anemopaegma chamberlaynii","present","L",10
"125","Anemopaegma","chrysanthum","Anemopaegma chrysanthum","absent","L",10
"126","Anemopaegma","chrysoleucum","Anemopaegma chrysoleucum","absent","L",10
"127","Anemopaegma","citrinum","Anemopaegma citrinum","present","L",10
"128","Anemopaegma","colombianum","Anemopaegma colombianum","absent","L",10
"129","Anemopaegma","flavum","Anemopaegma flavum","absent","L",10
"130","Anemopaegma","floridum","Anemopaegma floridum","marginally present","L",10
"131","Anemopaegma","foetidum","Anemopaegma foetidum","absent","L",10
"132","Anemopaegma","glaucum","Anemopaegma glaucum","marginally present","L",10
"133","Anemopaegma","goyazense","Anemopaegma goyazense","present","L",10
"134","Anemopaegma","gracile","Anemopaegma gracile","marginally present","L",10
"135","Anemopaegma","grandifolium","Anemopaegma grandifolium","absent","L",10
"136","Anemopaegma","granvillei","Anemopaegma granvillei","absent","L",10
"137","Anemopaegma","heringeri","Anemopaegma heringeri","endemic","L",10
"138","Anemopaegma","hilarianum","Anemopaegma hilarianum","endemic","L",10
"139","Anemopaegma","insculptum","Anemopaegma insculptum","absent","L",10
"140","Anemopaegma","ionanthum","Anemopaegma ionanthum","absent","L",10
"141","Anemopaegma","jucundum","Anemopaegma jucundum","absent","L",10
"142","Anemopaegma","karstenii","Anemopaegma karstenii","absent","L",10
"143","Anemopaegma","laeve","Anemopaegma laeve","marginally present","L",10
"144","Anemopaegma","longidens","Anemopaegma longidens","absent","L",10
"145","Anemopaegma","longipetiolatum","Anemopaegma longipetiolatum","absent","L",10
"146","Anemopaegma","mirabile","Anemopaegma mirabile","absent","L",10
"147","Anemopaegma","nebulosum","Anemopaegma nebulosum","endemic","L",10
"148","Anemopaegma","oligoneuron","Anemopaegma oligoneuron","absent","L",10
"149","Anemopaegma","orbiculatum","Anemopaegma orbiculatum","absent","L",10
"150","Anemopaegma","pabstii","Anemopaegma pabstii","marginally present","L",10
"151","Anemopaegma","pachyphyllum","Anemopaegma pachyphyllum","endemic","L",10
"152","Anemopaegma","paraense","Anemopaegma paraense","absent","L",10
"153","Anemopaegma","parkeri","Anemopaegma parkeri","absent","L",10
"154","Anemopaegma","patelliforme","Anemopaegma patelliforme","absent","L",10
"155","Anemopaegma","prostratum","Anemopaegma prostratum","endemic","L",10
"156","Anemopaegma","puberulum","Anemopaegma puberulum","absent","L",10
"157","Anemopaegma","robustum","Anemopaegma robustum","absent","L",10
"158","Anemopaegma","rugosum","Anemopaegma rugosum","absent","L",10
"159","Anemopaegma","salicifolium","Anemopaegma salicifolium","absent","L",10
"160","Anemopaegma","santaritense","Anemopaegma santaritense","absent","L",10
"161","Anemopaegma","scabriusculum","Anemopaegma scabriusculum","absent","L",10
"162","Anemopaegma","setilobum","Anemopaegma setilobum","endemic","L",10
"163","Anemopaegma","velutinum","Anemopaegma velutinum","present","L",10
"164","Anemopaegma","villosum","Anemopaegma villosum","absent","L",10
"165","Bignonia","aequinoctialis","Bignonia aequinoctialis","absent","J",8
"166","Bignonia","binata","Bignonia binata","present","J",8
"167","Bignonia","bracteomana","Bignonia bracteomana","absent","J",8
"168","Bignonia","callistegioides","Bignonia callistegioides","marginally present","J",8
"169","Bignonia","campanulata","Bignonia campanulata","present","J",8
"170","Bignonia","capreolata","Bignonia capreolata","absent","J",8
"171","Bignonia","cararensis","Bignonia cararensis","absent","J",8
"172","Bignonia","corymbosa","Bignonia corymbosa","marginally present","J",8
"173","Bignonia","costata","Bignonia costata","endemic","J",8
"174","Bignonia","cuneata","Bignonia cuneata","absent","J",8
"175","Bignonia","decora","Bignonia decora","marginally present","J",8
"176","Bignonia","diversifolia","Bignonia diversifolia","absent","J",8
"177","Bignonia","hyacinthina","Bignonia hyacinthina","absent","J",8
"178","Bignonia","lilacina","Bignonia lilacina","absent","J",8
"179","Bignonia","longiflora","Bignonia longiflora","absent","J",8
"180","Bignonia","magnifica","Bignonia magnifica","absent","J",8
"181","Bignonia","microcalyx","Bignonia microcalyx","absent","J",8
"182","Bignonia","neoheterophylla","Bignonia neoheterophylla","absent","J",8
"183","Bignonia","neouliginosa","Bignonia neouliginosa","absent","J",8
"184","Bignonia","nocturna","Bignonia nocturna","absent","J",8
"185","Bignonia","noterophila","Bignonia noterophila","absent","J",8
"186","Bignonia","phellosperma","Bignonia phellosperma","absent","J",8
"187","Bignonia","potosina","Bignonia potosina","absent","J",8
"188","Bignonia","prieurii","Bignonia prieurii","marginally present","J",8
"189","Bignonia","pterocalyx","Bignonia pterocalyx","absent","J",8
"190","Bignonia","ramentacea","Bignonia ramentacea","marginally present","J",8
"191","Bignonia","sanctae-crucis","Bignonia sanctae-crucis","absent","J",8
"192","Bignonia","sciuripabulum","Bignonia sciuripabulum","present","J",8
"193","Bignonia","sordida","Bignonia sordida","absent","J",8
"194","Bignonia","uleana","Bignonia uleana","absent","J",8
"195","Callichlamys","latifolia","Callichlamys latifolia","marginally present","M",12
"196","Cuspidaria","argentea","Cuspidaria argentea","absent","Q",16
"197","Cuspidaria","bracteata","Cuspidaria bracteata","absent","Q",16
"198","Cuspidaria","bracteolata","Cuspidaria bracteolata","absent","Q",16
"199","Cuspidaria","cinerea","Cuspidaria cinerea","absent","Q",16
"200","Cuspidaria","convoluta","Cuspidaria convoluta","present","Q",16
"201","Cuspidaria","cratensis","Cuspidaria cratensis","absent","Q",16
"202","Cuspidaria","emmonsii","Cuspidaria emmonsii","absent","Q",16
"203","Cuspidaria","floribunda","Cuspidaria floribunda","marginally present","Q",16
"204","Cuspidaria","inaequalis","Cuspidaria inaequalis","absent","Q",16
"205","Cuspidaria","lachnaea","Cuspidaria lachnaea","absent","Q",16
"206","Cuspidaria","lasiantha","Cuspidaria lasiantha","present","Q",16
"207","Cuspidaria","lateriflora","Cuspidaria lateriflora","marginally present","Q",16
"208","Cuspidaria","monophylla","Cuspidaria monophylla","absent","Q",16
"209","Cuspidaria","multiflora","Cuspidaria multiflora","marginally present","Q",16
"210","Cuspidaria","octoptera","Cuspidaria octoptera","present","Q",16
"211","Cuspidaria","pulchella","Cuspidaria pulchella","present","Q",16
"212","Cuspidaria","pulchra","Cuspidaria pulchra","present","Q",16
"213","Cuspidaria","sceptrum","Cuspidaria sceptrum","marginally present","Q",16
"214","Cuspidaria","simplicifolia","Cuspidaria simplicifolia","marginally present","Q",16
"215","Cuspidaria","subincana","Cuspidaria subincana","absent","Q",16
"216","Cuspidaria","weberbaueri","Cuspidaria weberbaueri","absent","Q",16
"217","Dolichandra","chodatii","Dolichandra chodatii","marginally present","H",6
"218","Dolichandra","cynanchoides","Dolichandra cynanchoides","marginally present","H",6
"219","Dolichandra","dentata","Dolichandra dentata","marginally present","H",6
"220","Dolichandra","hispida","Dolichandra hispida","present","H",6
"221","Dolichandra","quadrivalvis","Dolichandra quadrivalvis","marginally present","H",6
"222","Dolichandra","steyermarkii","Dolichandra steyermarkii","absent","H",6
"223","Dolichandra","uncata","Dolichandra uncata","absent","H",6
"224","Dolichandra","unguiculata","Dolichandra unguiculata","endemic","H",6
"225","Dolichandra","unguis-cati","Dolichandra unguis-cati","marginally present","H",6
"226","Fridericia","arthrerion","Fridericia arthrerion","absent","R",20
"227","Fridericia","bahiensis","Fridericia bahiensis","present","R",20
"228","Fridericia","candicans","Fridericia candicans","absent","R",20
"229","Fridericia","carichanensis","Fridericia carichanensis","absent","R",20
"230","Fridericia","caudigera","Fridericia caudigera","marginally present","R",20
"231","Fridericia","chica","Fridericia chica","marginally present","R",20
"232","Fridericia","cinerea","Fridericia cinerea","marginally present","R",20
"233","Fridericia","cinnamomea","Fridericia cinnamomea","absent","R",20
"234","Fridericia","conjugata","Fridericia conjugata","present","R",20
"235","Fridericia","costaricensis","Fridericia costaricensis","absent","R",20
"236","Fridericia","crassa","Fridericia crassa","absent","R",20
"237","Fridericia","craterophora","Fridericia craterophora","marginally present","R",20
"238","Fridericia","cuneifolia","Fridericia cuneifolia","present","R",20
"239","Fridericia","dispar","Fridericia dispar","marginally present","R",20
"240","Fridericia","egensis","Fridericia egensis","absent","R",20
"241","Fridericia","elegans","Fridericia elegans","present","R",20
"242","Fridericia","erubescens","Fridericia erubescens","present","R",20
"243","Fridericia","fagoides","Fridericia fagoides","marginally present","R",20
"244","Fridericia","fanshawei","Fridericia fanshawei","absent","R",20
"245","Fridericia","floribunda","Fridericia floribunda","absent","R",20
"246","Fridericia","florida","Fridericia florida","marginally present","R",20
"247","Fridericia","formosa","Fridericia formosa","present","R",20
"248","Fridericia","grosourdyana","Fridericia grosourdyana","absent","R",20
"249","Fridericia","japurensis","Fridericia japurensis","absent","R",20
"250","Fridericia","lauta","Fridericia lauta","absent","R",20
"251","Fridericia","leucopogon","Fridericia leucopogon","present","R",20
"252","Fridericia","limae","Fridericia limae","marginally present","R",20
"253","Fridericia","mollis","Fridericia mollis","absent","R",20
"254","Fridericia","mollissima","Fridericia mollissima","absent","R",20
"255","Fridericia","mutabilis","Fridericia mutabilis","present","R",20
"256","Fridericia","nicotianiflora","Fridericia nicotianiflora","absent","R",20
"257","Fridericia","nigrescens","Fridericia nigrescens","absent","R",20
"258","Fridericia","oligantha","Fridericia oligantha","absent","R",20
"259","Fridericia","oxycarpa","Fridericia oxycarpa","absent","R",20
"260","Fridericia","patellifera","Fridericia patellifera","absent","R",20
"261","Fridericia","pearcei","Fridericia pearcei","absent","R",20
"262","Fridericia","platyphylla","Fridericia platyphylla","marginally present","R",20
"263","Fridericia","pliciflora","Fridericia pliciflora","absent","R",20
"264","Fridericia","podopogon","Fridericia podopogon","absent","R",20
"265","Fridericia","poeppigii","Fridericia poeppigii","absent","R",20
"266","Fridericia","prancei","Fridericia prancei","absent","R",20
"267","Fridericia","pubescens","Fridericia pubescens","marginally present","R",20
"268","Fridericia","rego","Fridericia rego","endemic","R",20
"269","Fridericia","samydoides","Fridericia samydoides","present","R",20
"270","Fridericia","schumanniana","Fridericia schumanniana","absent","R",20
"271","Fridericia","simplex","Fridericia simplex","absent","R",20
"272","Fridericia","speciosa","Fridericia speciosa","present","R",20
"273","Fridericia","spicata","Fridericia spicata","absent","R",20
"274","Fridericia","subexserta","Fridericia subexserta","absent","R",20
"275","Fridericia","subincana","Fridericia subincana","present","R",20
"276","Fridericia","subverticillata","Fridericia subverticillata","endemic","R",20
"277","Fridericia","trachyphylla","Fridericia trachyphylla","present","R",20
"278","Fridericia","trailii","Fridericia trailii","absent","R",20
"279","Fridericia","triplinervia","Fridericia triplinervia","present","R",20
"280","Fridericia","truncata","Fridericia truncata","absent","R",20
"281","Fridericia","tuberculata","Fridericia tuberculata","absent","R",20
"282","Fridericia","tynanthoides","Fridericia tynanthoides","endemic","R",20
"283","Fridericia","viscida","Fridericia viscida","absent","R",20
"284","Fridericia","whitei","Fridericia whitei","absent","R",20
"285","Lundia","corymbifera","Lundia corymbifera","marginally present","Q",18
"286","Lundia","damazioi","Lundia damazioi","endemic","Q",18
"287","Lundia","densiflora","Lundia densiflora","absent","Q",18
"288","Lundia","erionema","Lundia erionema","absent","Q",18
"289","Lundia","gardneri","Lundia gardneri","absent","Q",18
"290","Lundia","helicocalyx","Lundia helicocalyx","absent","Q",18
"291","Lundia","laevis","Lundia laevis","absent","Q",18
"292","Lundia","longa","Lundia longa","present","Q",18
"293","Lundia","nitidula","Lundia nitidula","present","Q",18
"294","Lundia","obliqua","Lundia obliqua","present","Q",18
"295","Lundia","puberula","Lundia puberula","absent","Q",18
"296","Lundia","spruceana","Lundia spruceana","absent","Q",18
"297","Lundia","virginalis","Lundia virginalis","present","Q",18
"298","Manaosella","cordifolia","Manaosella cordifolia","present","F",4
"299","Mansoa","alliacea","Mansoa alliacea","absent","K",9
"300","Mansoa","angustidens","Mansoa angustidens","absent","K",9
"301","Mansoa","difficilis","Mansoa difficilis","present","K",9
"302","Mansoa","gentryi","Mansoa gentryi","absent","K",9
"303","Mansoa","glaziovii","Mansoa glaziovii","endemic","K",9
"304","Mansoa","hirsuta","Mansoa hirsuta","absent","K",9
"305","Mansoa","hymenaea","Mansoa hymenaea","endemic","K",9
"306","Mansoa","ivanii","Mansoa ivanii","absent","K",9
"307","Mansoa","lanceolata","Mansoa lanceolata","endemic","K",9
"308","Mansoa","longicalyx","Mansoa longicalyx","absent","K",9
"309","Mansoa","minensis","Mansoa minensis","endemic","K",9
"310","Mansoa","onohualcoides","Mansoa onohualcoides","present","K",9
"311","Mansoa","paganuccii","Mansoa paganuccii","absent","K",9
"312","Mansoa","parvifolia","Mansoa parvifolia","absent","K",9
"313","Mansoa","sagotii","Mansoa sagotii","absent","K",9
"314","Mansoa","standleyi","Mansoa standleyi","absent","K",9
"315","Mansoa","verrucifera","Mansoa verrucifera","absent","K",9
"316","Martinella","insignis","Martinella insignis","endemic","N",13
"317","Martinella","iquitoensis","Martinella iquitoensis","absent","N",13
"318","Martinella","obovata","Martinella obovata","absent","N",13
"319","Pachyptera","aromatica","Pachyptera aromatica","absent","O",14
"320","Pachyptera","erythraea","Pachyptera erythraea","absent","O",14
"321","Pachyptera","kerere","Pachyptera kerere","absent","O",14
"322","Pachyptera","ventricosa","Pachyptera ventricosa","absent","O",14
"323","Perianthomega","vellozoi","Perianthomega vellozoi","marginally present","A",1
"324","Pleonotoma","bracteata","Pleonotoma bracteata","absent","F",5
"325","Pleonotoma","castelnaei","Pleonotoma castelnaei","absent","F",5
"326","Pleonotoma","clematis","Pleonotoma clematis","absent","F",5
"327","Pleonotoma","dendrotricha","Pleonotoma dendrotricha","absent","F",5
"328","Pleonotoma","echitidea","Pleonotoma echitidea","absent","F",5
"329","Pleonotoma","exserta","Pleonotoma exserta","absent","F",5
"330","Pleonotoma","fissicalyx","Pleonotoma fissicalyx","absent","F",5
"331","Pleonotoma","fluminensis","Pleonotoma fluminensis","present","F",5
"332","Pleonotoma","jasminifolia","Pleonotoma jasminifolia","absent","F",5
"333","Pleonotoma","longiflora","Pleonotoma longiflora","absent","F",5
"334","Pleonotoma","melioides","Pleonotoma melioides","marginally present","F",5
"335","Pleonotoma","orientalis","Pleonotoma orientalis","absent","F",5
"336","Pleonotoma","pavettiflora","Pleonotoma pavettiflora","absent","F",5
"337","Pleonotoma","stichadenia","Pleonotoma stichadenia","present","F",5
"338","Pleonotoma","tetraquetra","Pleonotoma tetraquetra","endemic","F",5
"339","Pleonotoma","variabilis","Pleonotoma variabilis","absent","F",5
"340","Pyrostegia","millingtonioides","Pyrostegia millingtonioides","absent","L",11
"341","Pyrostegia","venusta","Pyrostegia venusta","marginally present","L",11
"342","Stizophyllum","inaequilaterum","Stizophyllum inaequilaterum","absent","D",3
"343","Stizophyllum","perforatum","Stizophyllum perforatum","present","D",3
"344","Stizophyllum","riparium","Stizophyllum riparium","absent","D",3
"345","Tanaecium","affine","Tanaecium affine","absent","P",15
"346","Tanaecium","apiculatum","Tanaecium apiculatum","absent","P",15
"347","Tanaecium","bilabiatum","Tanaecium bilabiatum","absent","P",15
"348","Tanaecium","caudiculatum","Tanaecium caudiculatum","absent","P",15
"349","Tanaecium","crucigerum","Tanaecium crucigerum","absent","P",15
"350","Tanaecium","cyrtanthum","Tanaecium cyrtanthum","absent","P",15
"351","Tanaecium","dichotomum","Tanaecium dichotomum","marginally present","P",15
"352","Tanaecium","duckei","Tanaecium duckei","absent","P",15
"353","Tanaecium","exitiosum","Tanaecium exitiosum","absent","P",15
"354","Tanaecium","jaroba","Tanaecium jaroba","absent","P",15
"355","Tanaecium","neobrasiliense","Tanaecium neobrasiliense","present","P",15
"356","Tanaecium","ornithophilum","Tanaecium ornithophilum","absent","P",15
"357","Tanaecium","paradoxum","Tanaecium paradoxum","absent","P",15
"358","Tanaecium","parviflorum","Tanaecium parviflorum","present","P",15
"359","Tanaecium","pyramidatum","Tanaecium pyramidatum","marginally present","P",15
"360","Tanaecium","revillae","Tanaecium revillae","absent","P",15
"361","Tanaecium","selloi","Tanaecium selloi","present","P",15
"362","Tanaecium","tetragonolobum","Tanaecium tetragonolobum","absent","P",15
"363","Tanaecium","tetramerum","Tanaecium tetramerum","absent","P",15
"364","Tanaecium","truncatum","Tanaecium truncatum","absent","P",15
"365","Tanaecium","xanthophyllum","Tanaecium xanthophyllum","absent","P",15
"366","Tynanthus","cognatus","Tynanthus cognatus","present","Q",17
"367","Tynanthus","croatianus","Tynanthus croatianus","absent","Q",17
"368","Tynanthus","densiflorus","Tynanthus densiflorus","absent","Q",17
"369","Tynanthus","espiritosantensis","Tynanthus espiritosantensis","endemic","Q",17
"370","Tynanthus","fasciculatus","Tynanthus fasciculatus","endemic","Q",17
"371","Tynanthus","guatemalensis","Tynanthus guatemalensis","absent","Q",17
"372","Tynanthus","labiatus","Tynanthus labiatus","present","Q",17
"373","Tynanthus","macranthus","Tynanthus macranthus","absent","Q",17
"374","Tynanthus","micranthus","Tynanthus micranthus","endemic","Q",17
"375","Tynanthus","panurensis","Tynanthus panurensis","absent","Q",17
"376","Tynanthus","polyanthus","Tynanthus polyanthus","absent","Q",17
"377","Tynanthus","pubescens","Tynanthus pubescens","absent","Q",17
"378","Tynanthus","sastrei","Tynanthus sastrei","absent","Q",17
"379","Tynanthus","schumannianus","Tynanthus schumannianus","absent","Q",17
"380","Xylophragma","corchoroides","Xylophragma corchoroides","endemic","R",19
"381","Xylophragma","harleyi","Xylophragma harleyi","present","R",19
"382","Xylophragma","heterocalyx","Xylophragma heterocalyx","present","R",19
"383","Xylophragma","myrianthum","Xylophragma myrianthum","endemic","R",19
"384","Xylophragma","platyphyllum","Xylophragma platyphyllum","absent","R",19
"385","Xylophragma","pratense","Xylophragma pratense","absent","R",19
"386","Xylophragma","seemannianum","Xylophragma seemannianum","absent","R",19
