"","Species","Number.of.occurrence.records","Alpha.value","Convex hull range area","Alpha hull range area","Description year"
"1","Adenocalymma ackermannii","4","2","1032","935","1896"
"2","Adenocalymma adenophorum","9","3","117922","44054","1958"
"3","Adenocalymma albiflorum","29","7","256494","250722","1976"
"4","Adenocalymma alboaurantiacum","9","6","728239","723404","2016"
"5","Adenocalymma album","6","2","27787","27787","1775"
"6","Adenocalymma allamandiflorum","15","3","495082","462606","1894"
"7","Adenocalymma apetiolatum","1","NA","NA","NA","2016"
"8","Adenocalymma apparicianum","11","3","70599","70537","1949"
"9","Adenocalymma apurense","201","7","8111227","6899415","1938"
"10","Adenocalymma arthropetiolatum","12","1","23529","19113","1973"
"11","Adenocalymma aspericarpum","6","3","181867","181867","1976"
"12","Adenocalymma aurantiacum","19","2","89895","79984","2013"
"13","Adenocalymma biternatum","37","5","3664592","1539637","1940"
"14","Adenocalymma bracteatum","204","4","2242512","1644682","1845"
"15","Adenocalymma bracteolatum","74","8","5291107","4900500","1845"
"16","Adenocalymma bracteosum","39","8","5056286","4321697","1845"
"17","Adenocalymma bullatum","4","2","1702","1702","1894"
"18","Adenocalymma calcareum","5","4","48104","48104","2009"
"19","Adenocalymma candolleanum","40","3","623206","585410","1897"
"20","Adenocalymma chocoense","3","2","2095","2095","1985"
"21","Adenocalymma cidii","1","NA","NA","NA","1999"
"22","Adenocalymma cinereum","11","2","30989","30989","2013"
"23","Adenocalymma cladotrichum","157","4","2646760","2236724","1953"
"24","Adenocalymma contractum","12","8","1098757","1098757","1999"
"25","Adenocalymma coriaceum","54","11","477539","459004","1845"
"26","Adenocalymma cristicalyx","9","18","115216","109963","1977"
"27","Adenocalymma cymbalum","51","4","394401","282845","1896"
"28","Adenocalymma dichilum","17","2","113434","106360","1993"
"29","Adenocalymma divaricatum","43","3","822078","432308","1861"
"30","Adenocalymma dugandii","3","1","556","556","1953"
"31","Adenocalymma dusenii","28","2","38234","26307","1921"
"32","Adenocalymma flaviflorum","51","6","4257283","4035911","1850"
"33","Adenocalymma flavum","1","NA","NA","NA","1845"
"34","Adenocalymma gibbosum","2","NA","NA","NA","2013"
"35","Adenocalymma gracielzae","6","3","115996","115996","1993"
"36","Adenocalymma grandifolium","36","2","47932","32359","1845"
"37","Adenocalymma hatschbachii","33","1","25479","21709","1993"
"38","Adenocalymma hirtum","2","NA","NA","NA","1896"
"39","Adenocalymma hypostictum","23","2","60239","59423","1896"
"40","Adenocalymma impressum","90","5","5338308","4102062","1937"
"41","Adenocalymma juliae","4","7","59814","59814","1981"
"42","Adenocalymma lineare","2","NA","NA","NA","2016"
"43","Adenocalymma longilineum","14","5","578554","496943","1936"
"44","Adenocalymma macrophyllum","30","2","46943","46166","1845"
"45","Adenocalymma magdalenense","8","2","25639","24838","1946"
"46","Adenocalymma magnificum","38","3","696343","617514","1845"
"47","Adenocalymma marginatum","235","3","2128342","1019974","1845"
"48","Adenocalymma mirabile","7","3","177844","122673","1954"
"49","Adenocalymma molle","3","1","1219","1219","1980"
"50","Adenocalymma moringifolium","15","7","259612","250000","1845"
"51","Adenocalymma nervosum","1","NA","NA","NA","1896"
"52","Adenocalymma nodosum","66","2","995383","798650","1836"
"53","Adenocalymma patulum","53","12","1453993","871303","1864"
"54","Adenocalymma paulistarum","68","2","317376","270432","1894"
"55","Adenocalymma pedunculatum","142","3","1472063","932040","1825"
"56","Adenocalymma peregrinum","133","5","2864523","2373307","1863"
"57","Adenocalymma pubescens","48","2","970380","573122","1825"
"58","Adenocalymma salmoneum","29","1","31068","30394","1951"
"59","Adenocalymma sastrei","1","NA","NA","NA","1999"
"60","Adenocalymma saulense","2","NA","NA","NA","1993"
"61","Adenocalymma scabriusculum","14","4","1034277","713740","1845"
"62","Adenocalymma schomburgkii","112","5","3560711","3179923","1845"
"63","Adenocalymma sessile","11","2","55681","48391","2013"
"64","Adenocalymma subincanum","20","8","2225901","2152495","1914"
"65","Adenocalymma subsessilifolium","18","2","41426","29286","1845"
"66","Adenocalymma subspicatum","2","NA","NA","NA","1993"
"67","Adenocalymma tanaeciicarpum","13","5","1410015","1178882","1976"
"68","Adenocalymma trifoliatum","104","1","46443","32772","1973"
"69","Adenocalymma ubatubense","1","NA","NA","NA","1999"
"70","Adenocalymma uleanum","29","3","738640","354936","1915"
"71","Adenocalymma validum","149","8","7240480","4908939","1894"
"72","Adenocalymma velutinum","5","3","15657","15657","1999"
"73","Amphilophium arenarium","9","4","139946","117965","1978"
"74","Amphilophium aschersonii","47","5","3565285","2976858","1904"
"75","Amphilophium bauhinioides","13","4","165710","161657","1888"
"76","Amphilophium blanchetii","6","3","20876","14734","1896"
"77","Amphilophium bracteatum","8","7","46820","46820","1832"
"78","Amphilophium buccinatorium","9","8","122630","57564","1845"
"79","Amphilophium campinae","8","10","1327368","1217723","1935"
"80","Amphilophium carolinae","100","2","1115454","1011397","1842"
"81","Amphilophium chocoense","7","1","13865","13865","1980"
"82","Amphilophium cremersii","8","4","88783","88783","1980"
"83","Amphilophium crucigerum","644","5","16358758","9253223","1753"
"84","Amphilophium cuneifolium","13","5","78351","78351","1845"
"85","Amphilophium dasytrichum","9","13","1349532","912700","1953"
"86","Amphilophium dolichoides","16","9","124233","101397","1832"
"87","Amphilophium dusenianum","9","5","170129","161685","1921"
"88","Amphilophium ecuadorense","14","2","72018","46426","1977"
"89","Amphilophium elongatum","7","7","187385","108386","1798"
"90","Amphilophium falcatum","5","11","1590981","1590981","1825"
"91","Amphilophium frutescens","9","2","39193","28372","1845"
"92","Amphilophium gnaphalanthum","12","3","57070","45218","1850"
"93","Amphilophium granulosum","45","6","3937338","3019381","1848"
"94","Amphilophium lactiflorum","58","14","161596","146229","1794"
"95","Amphilophium laeve","9","5","104709","52406","1957"
"96","Amphilophium laxiflorum","21","15","368246","290515","1845"
"97","Amphilophium lohmanniae","6","4","65741","53563","2009"
"98","Amphilophium magnoliifolium","12","8","290986","241806","1818"
"99","Amphilophium mansoanum","170","6","5465250","3714662","1845"
"100","Amphilophium monophyllum","29","2","46956","41504","1957"
"101","Amphilophium nunezii","7","8","134345","134345","1992"
"102","Amphilophium obovatum","8","1","22689","22632","1957"
"103","Amphilophium occidentale","19","11","1643573","1350046","1992"
"104","Amphilophium paniculatum","742","6","15475256","12368136","1818"
"105","Amphilophium pannosum","38","15","3191431","2133096","1896"
"106","Amphilophium parkeri","14","3","232740","154670","1845"
"107","Amphilophium pauciflorum","1","NA","NA","NA","1974"
"108","Amphilophium perbracteatum","1","NA","NA","NA","1985"
"109","Amphilophium pilosum","3","1","159","159","1938"
"110","Amphilophium porphyrotrichum","7","6","120790","96450","1963"
"111","Amphilophium pulverulentum","28","5","2477490","2018017","1938"
"112","Amphilophium racemosum","183","5","5910786","5238049","1896"
"113","Amphilophium reticulatum","1","NA","NA","NA","1978"
"114","Amphilophium rodriguesii","16","13","4944948","4547503","1976"
"115","Amphilophium sandwithii","12","5","205479","197456","1964"
"116","Amphilophium scabriusculum","6","9","344159","341814","1845"
"117","Amphilophium stamineum","3","62","115","115","1785"
"118","Amphilophium steyermarkii","16","5","139027","107307","1974"
"119","Anemopaegma acutifolium","19","6","1510083","1354387","1845"
"120","Anemopaegma alatum","15","5","314848","233418","1976"
"121","Anemopaegma album","11","4","173920","142017","1945"
"122","Anemopaegma arvense","79","3","2263374","1825451","1945"
"123","Anemopaegma brevipes","4","13","2870095","2870095","1895"
"124","Anemopaegma chamberlaynii","76","9","2378989","1342056","1896"
"125","Anemopaegma chrysanthum","85","3","847852","568926","1947"
"126","Anemopaegma chrysoleucum","179","5","3927852","2880080","1938"
"127","Anemopaegma citrinum","17","3","348336","302869","1845"
"128","Anemopaegma colombianum","5","6","239632","62725","1976"
"129","Anemopaegma flavum","33","8","1364829","1054205","1892"
"130","Anemopaegma floridum","57","5","5145268","3192996","1845"
"131","Anemopaegma foetidum","11","6","1355677","1075595","1896"
"132","Anemopaegma glaucum","43","5","2244390","1764967","1845"
"133","Anemopaegma goyazense","7","7","348275","298228","1896"
"134","Anemopaegma gracile","11","6","1250565","602718","1896"
"135","Anemopaegma grandifolium","5","9","183691","183078","1947"
"136","Anemopaegma granvillei","2","NA","NA","NA","1977"
"137","Anemopaegma heringeri","1","NA","NA","NA","1953"
"138","Anemopaegma hilarianum","8","3","160557","160413","1896"
"139","Anemopaegma insculptum","23","5","1789947","1632660","1976"
"140","Anemopaegma ionanthum","7","7","688901","603836","1985"
"141","Anemopaegma jucundum","4","4","45661","45661","1896"
"142","Anemopaegma karstenii","93","4","1516855","1232048","1896"
"143","Anemopaegma laeve","35","4","871405","601332","1845"
"144","Anemopaegma longidens","9","7","1955655","1733790","1845"
"145","Anemopaegma longipetiolatum","12","3","267461","213820","1905"
"146","Anemopaegma mirabile","2","NA","NA","NA","1976"
"147","Anemopaegma nebulosum","3","1","18","18","2015"
"148","Anemopaegma oligoneuron","24","6","3461917","2674761","1976"
"149","Anemopaegma orbiculatum","78","10","520962","510305","1845"
"150","Anemopaegma pabstii","12","8","743970","607470","1980"
"151","Anemopaegma pachyphyllum","1","NA","NA","NA","1896"
"152","Anemopaegma paraense","65","6","5353325","4372445","1896"
"153","Anemopaegma parkeri","22","7","4097678","2952037","1906"
"154","Anemopaegma patelliforme","7","11","3279818","2539422","1976"
"155","Anemopaegma prostratum","27","11","1448025","1198884","1845"
"156","Anemopaegma puberulum","42","7","814132","612734","1953"
"157","Anemopaegma robustum","10","5","1039388","1019219","1896"
"158","Anemopaegma rugosum","11","1","2538","2382","1931"
"159","Anemopaegma salicifolium","3","3","8421","8421","1938"
"160","Anemopaegma santaritense","18","4","231956","212639","1971"
"161","Anemopaegma scabriusculum","19","3","644534","428917","1845"
"162","Anemopaegma setilobum","10","2","17693","17459","1980"
"163","Anemopaegma velutinum","21","4","256867","196029","1845"
"164","Anemopaegma villosum","1","NA","NA","NA","1976"
"165","Bignonia aequinoctialis","738","4","9979724","8566955","1753"
"166","Bignonia binata","44","3","876276","701482","1821"
"167","Bignonia bracteomana","69","3","970824","653326","1908"
"168","Bignonia callistegioides","32","5","1135399","676355","1832"
"169","Bignonia campanulata","13","4","177605","130434","1832"
"170","Bignonia capreolata","109","4","1274582","1173400","1753"
"171","Bignonia cararensis","1","NA","NA","NA","2015"
"172","Bignonia corymbosa","389","5","10047777","8496483","1807"
"173","Bignonia costata","5","1","3616","3596","1896"
"174","Bignonia cuneata","5","31","16605","16605","1945"
"175","Bignonia decora","48","5","989796","657344","1895"
"176","Bignonia diversifolia","316","6","1903796","1437974","1818"
"177","Bignonia hyacinthina","103","5","5027934","3388093","1935"
"178","Bignonia lilacina","67","5","7143555","6134201","1978"
"179","Bignonia longiflora","29","1","36633","28747","1801"
"180","Bignonia magnifica","21","27","285780","252591","1879"
"181","Bignonia microcalyx","15","4","466456","370442","1818"
"182","Bignonia neoheterophylla","145","3","759447","445567","1940"
"183","Bignonia neouliginosa","15","1","60102","54929","1946"
"184","Bignonia nocturna","107","6","6260484","4764332","1891"
"185","Bignonia noterophila","299","6","9080918","7949612","1845"
"186","Bignonia phellosperma","24","3","77838","40204","1882"
"187","Bignonia potosina","89","10","788326","722351","1895"
"188","Bignonia prieurii","69","6","4944778","3907057","1845"
"189","Bignonia pterocalyx","19","2","147797","105329","1916"
"190","Bignonia ramentacea","18","9","2001074","852022","1845"
"191","Bignonia sanctae-crucis","10","5","200067","73969","2015"
"192","Bignonia sciuripabulum","137","9","12100033","11097064","1894"
"193","Bignonia sordida","30","7","2751611","2276015","1896"
"194","Bignonia uleana","47","4","1450632","1200057","1915"
"195","Callichlamys latifolia","357","5","11921428","11247309","1894"
"196","Cuspidaria argentea","15","2","338794","320864","1954"
"197","Cuspidaria bracteata","6","15","1069492","1069492","1896"
"198","Cuspidaria bracteolata","61","5","699987","519751","1845"
"199","Cuspidaria cinerea","6","4","8255","6397","1894"
"200","Cuspidaria convoluta","77","5","1668564","825281","1975"
"201","Cuspidaria cratensis","10","3","335078","335078","1949"
"202","Cuspidaria emmonsii","8","7","851963","758458","1992"
"203","Cuspidaria floribunda","82","5","3981309","2497594","1973"
"204","Cuspidaria inaequalis","91","5","5975688","4882796","1842"
"205","Cuspidaria lachnaea","13","14","1325671","868066","1893"
"206","Cuspidaria lasiantha","17","3","502023","375136","1896"
"207","Cuspidaria lateriflora","77","6","7183422","6442351","1845"
"208","Cuspidaria monophylla","6","3","19991","19991","1978"
"209","Cuspidaria multiflora","19","3","361717","317251","1845"
"210","Cuspidaria octoptera","9","5","212822","210742","1977"
"211","Cuspidaria pulchella","21","4","421148","372705","1894"
"212","Cuspidaria pulchra","39","6","2350127","1447204","1832"
"213","Cuspidaria sceptrum","96","5","2252011","1581485","1832"
"214","Cuspidaria simplicifolia","20","15","2210181","1576295","1838"
"215","Cuspidaria subincana","14","4","688571","617932","1976"
"216","Cuspidaria weberbaueri","10","4","17409","13347","1973"
"217","Dolichandra chodatii","25","4","1833991","783423","1907"
"218","Dolichandra cynanchoides","77","5","1961456","1774401","1832"
"219","Dolichandra dentata","24","3","437279","268758","1894"
"220","Dolichandra hispida","18","8","1880313","1778946","2015"
"221","Dolichandra quadrivalvis","245","7","15394939","12279650","1800"
"222","Dolichandra steyermarkii","29","12","5002167","4997681","1966"
"223","Dolichandra uncata","250","5","10595331","5039486","1808"
"224","Dolichandra unguiculata","14","7","270594","79344","1825"
"225","Dolichandra unguis-cati","763","4","16811048","14534540","1753"
"226","Fridericia arthrerion","26","4","1657332","828402","1841"
"227","Fridericia bahiensis","16","4","539421","470851","1847"
"228","Fridericia candicans","237","5","8185015","7080135","1792"
"229","Fridericia carichanensis","24","3","146109","86869","1818"
"230","Fridericia caudigera","84","4","688913","606711","1895"
"231","Fridericia chica","312","5","13758903","12905019","1807"
"232","Fridericia cinerea","24","3","392818","324448","1894"
"233","Fridericia cinnamomea","67","5","6485651","5499302","1845"
"234","Fridericia conjugata","96","8","11619421","8167901","1825"
"235","Fridericia costaricensis","45","6","185042","172871","1921"
"236","Fridericia crassa","3","8","3085","3085","1896"
"237","Fridericia craterophora","37","10","1788020","1761098","1845"
"238","Fridericia cuneifolia","15","4","255841","216087","1845"
"239","Fridericia dispar","14","6","787299","699554","1894"
"240","Fridericia egensis","13","12","2767131","2360443","1896"
"241","Fridericia elegans","4","7","335","335","1825"
"242","Fridericia erubescens","40","7","883723","714588","1845"
"243","Fridericia fagoides","13","4","178627","115686","1832"
"244","Fridericia fanshawei","39","5","5452608","4661891","1948"
"245","Fridericia floribunda","70","3","408776","291574","1818"
"246","Fridericia florida","331","6","10625366","9497302","1845"
"247","Fridericia formosa","14","4","94840","82031","1868"
"248","Fridericia grosourdyana","11","3","54333","39438","1888"
"249","Fridericia japurensis","81","9","6610337","6003375","1845"
"250","Fridericia lauta","8","7","435545","348335","1896"
"251","Fridericia leucopogon","20","2","58185","53260","1832"
"252","Fridericia limae","18","3","452163","370207","1980"
"253","Fridericia mollis","20","4","742719","512962","1798"
"254","Fridericia mollissima","154","5","1622762","974166","1818"
"255","Fridericia mutabilis","38","4","382605","345175","1896"
"256","Fridericia nicotianiflora","16","7","1124190","960974","1915"
"257","Fridericia nigrescens","48","5","3333558","2964134","1939"
"258","Fridericia oligantha","13","2","98592","77740","1896"
"259","Fridericia oxycarpa","42","4","1060796","993957","1916"
"260","Fridericia patellifera","385","4","8691528","7851355","1833"
"261","Fridericia pearcei","47","4","1513282","887906","1906"
"262","Fridericia platyphylla","313","3","8501621","5672575","1832"
"263","Fridericia pliciflora","2","NA","NA","NA","1845"
"264","Fridericia podopogon","31","4","100956","84519","1845"
"265","Fridericia poeppigii","33","3","708024","385595","1845"
"266","Fridericia prance","17","10","2163087","2037760","1976"
"267","Fridericia pubescens","241","5","12646755","10564891","1763"
"268","Fridericia rego","20","4","206448","55247","1825"
"269","Fridericia samydoides","47","3","856963","602917","1832"
"270","Fridericia schumanniana","180","4","4193283","2578224","1896"
"271","Fridericia simplex","9","4","362665","324609","1980"
"272","Fridericia speciosa","66","2","805670","514862","1827"
"273","Fridericia spicata","65","8","4305366","3402708","1896"
"274","Fridericia subexserta","1","NA","NA","NA","1896"
"275","Fridericia subincana","18","4","59381","41836","1841"
"276","Fridericia subverticillata","1","NA","NA","NA","1896"
"277","Fridericia trachyphylla","4","6","76878","75772","1896"
"278","Fridericia trailii","43","5","3245938","1979519","1906"
"279","Fridericia triplinervia","80","6","6813021","3581023","1845"
"280","Fridericia truncata","44","4","721634","570928","1905"
"281","Fridericia tuberculata","56","4","5484832","4444259","1845"
"282","Fridericia tynanthoides","6","8","51068","40479","1980"
"283","Fridericia viscida","18","6","661400","542779","1895"
"284","Fridericia whitei","4","4","54871","54871","1927"
"285","Lundia corymbifera","176","5","6688664","2611664","1937"
"286","Lundia damazioi","11","2","78549","57678","1905"
"287","Lundia densiflora","88","5","6038011","4343836","1845"
"288","Lundia erionema","38","6","4235905","3761099","1845"
"289","Lundia gardneri","15","3","211726","211724","1954"
"290","Lundia helicocalyx","11","2","118247","104801","1980"
"291","Lundia laevis","12","9","1305136","584499","2011"
"292","Lundia longa","52","3","1249395","668703","1845"
"293","Lundia nitidula","31","4","906258","444062","1845"
"294","Lundia obliqua","13","2","171833","131650","1849"
"295","Lundia puberula","99","6","7108962","6485100","1917"
"296","Lundia spruceana","66","3","1311883","515114","1868"
"297","Lundia virginalis","21","4","523630","469509","1845"
"298","Manaosella cordifolia","42","4","3140069","1895002","1978"
"299","Mansoa alliacea","70","9","6901242","5667054","1979"
"300","Mansoa angustidens","11","6","467019","296061","1896"
"301","Mansoa difficilis","106","5","3199976","1826552","1896"
"302","Mansoa gentryi","6","3","103158","102177","2016"
"303","Mansoa glaziovii","21","5","627993","274111","1896"
"304","Mansoa hirsuta","13","3","144385","103904","1845"
"305","Mansoa hymenaea","15","3","97113","45562","1979"
"306","Mansoa ivanii","3","2","409","409","2016"
"307","Mansoa lanceolata","18","8","163969","162191","1979"
"308","Mansoa longicalyx","1","NA","NA","NA","2016"
"309","Mansoa minensis","6","2","7738","7738","2016"
"310","Mansoa onohualcoides","16","4","152918","65558","1976"
"311","Mansoa paganuccii","12","5","385191","276860","2016"
"312","Mansoa parvifolia","56","9","2340232","1503029","1979"
"313","Mansoa sagotii","33","9","2336371","1986950","1896"
"314","Mansoa standleyi","88","8","5840485","3333700","1979"
"315","Mansoa verrucifera","181","7","6830162","5663102","1976"
"316","Martinella insignis","6","2","12604","12604","2014"
"317","Martinella iquitoensis","24","6","1578130","1557449","1935"
"318","Martinella obovata","288","5","8192718","7288861","1896"
"319","Pachyptera aromatica","11","18","73881","71884","1891"
"320","Pachyptera erythraea","7","2","7517","7504","1977"
"321","Pachyptera kerere","187","4","7269004","5942144","1937"
"322","Pachyptera ventricosa","1","NA","NA","NA","1979"
"323","Perianthomega vellozoi","23","13","1055418","925237","1893"
"324","Pleonotoma bracteata","13","4","180760","177609","1980"
"325","Pleonotoma castelnaei","14","6","400023","390514","1958"
"326","Pleonotoma clematis","65","6","2861627","2583425","1863"
"327","Pleonotoma dendrotricha","1","NA","NA","NA","1958"
"328","Pleonotoma echitidea","10","4","117196","111002","1934"
"329","Pleonotoma exserta","20","2","42523","40449","1978"
"330","Pleonotoma fissicalyx","1","NA","NA","NA","2010"
"331","Pleonotoma fluminensis","2","NA","NA","NA","1975"
"332","Pleonotoma jasminifolia","47","4","1980304","1441794","1863"
"333","Pleonotoma longiflora","4","4","19304","19304","2010"
"334","Pleonotoma melioides","93","7","5778461","4860894","1976"
"335","Pleonotoma orientalis","10","6","649630","601495","1938"
"336","Pleonotoma pavettiflora","12","5","708002","620206","1934"
"337","Pleonotoma stichadenia","9","5","432956","432789","1894"
"338","Pleonotoma tetraquetra","27","4","668153","656554","1868"
"339","Pleonotoma variabilis","180","7","6807661","6362081","1863"
"340","Pyrostegia millingtonioides","3","6","105592","105592","1962"
"341","Pyrostegia venusta","323","7","12694087","11400629","1863"
"342","Stizophyllum inaequilaterum","76","7","5530590","2892545","1896"
"343","Stizophyllum perforatum","46","15","1536579","1409723","1863"
"344","Stizophyllum riparium","276","6","8789501","7599467","1938"
"345","Tanaecium affine","24","5","994828","906699","1992"
"346","Tanaecium apiculatum","1","NA","NA","NA","1976"
"347","Tanaecium bilabiatum","90","5","5030784","3752570","1906"
"348","Tanaecium caudiculatum","14","8","112502","99947","1932"
"349","Tanaecium crucigerum","16","5","427115","340978","1856"
"350","Tanaecium cyrtanthum","9","7","200111","171983","1896"
"351","Tanaecium dichotomum","303","6","15019896","12814135","1760"
"352","Tanaecium duckei","9","9","2531474","1681625","1935"
"353","Tanaecium exitiosum","5","1","6029","6029","1942"
"354","Tanaecium jaroba","80","6","6767390","4380356","1788"
"355","Tanaecium neobrasiliense","6","4","91348","78464","1888"
"356","Tanaecium ornithophilum","13","12","1085936","999558","1977"
"357","Tanaecium paradoxum","3","4","61314","61314","1954"
"358","Tanaecium parviflorum","15","4","409751","294186","1845"
"359","Tanaecium pyramidatum","675","6","14248150","13187495","1792"
"360","Tanaecium revillae","11","39","364831","290806","1978"
"361","Tanaecium selloi","109","5","3829998","1509162","1825"
"362","Tanaecium tetragonolobum","182","6","6268409","3532089","1809"
"363","Tanaecium tetramerum","4","3","37190","37190","1990"
"364","Tanaecium truncatum","17","6","1418562","432479","1936"
"365","Tanaecium xanthophyllum","80","3","1762221","917471","1845"
"366","Tynanthus cognatus","28","13","723410","717167","1863"
"367","Tynanthus croatianus","15","1","11977","9028","1971"
"368","Tynanthus densiflorus","4","1","2068","2007","2014"
"369","Tynanthus espiritosantensis","2","NA","NA","NA","2014"
"370","Tynanthus fasciculatus","13","2","99310","76966","1863"
"371","Tynanthus guatemalensis","48","2","142020","122638","1893"
"372","Tynanthus labiatus","11","4","313520","312379","1863"
"373","Tynanthus macranthus","4","3","4440","4440","1967"
"374","Tynanthus micranthus","43","2","209628","146663","1894"
"375","Tynanthus panurensis","25","3","666098","561816","1953"
"376","Tynanthus polyanthus","110","4","5662036","4579597","1953"
"377","Tynanthus pubescens","11","9","4457982","3295497","1978"
"378","Tynanthus sastrei","7","1","4911","3226","1980"
"379","Tynanthus schumannianus","68","6","4269424","3431859","1974"
"380","Xylophragma corchoroides","9","4","274299","248662","1832"
"381","Xylophragma harleyi","14","3","346271","267678","2001"
"382","Xylophragma heterocalyx","3","6","150969","150969","1979"
"383","Xylophragma myrianthum","17","8","334207","323512","1905"
"384","Xylophragma platyphyllum","44","7","1534633","1465874","1845"
"385","Xylophragma pratense","57","5","5775579","3852214","1903"
"386","Xylophragma seemannianum","220","5","2731312","2317608","1953"
